<svg width="16" height="17" viewBox="0 0 16 17" fill="none" xmlns="http://www.w3.org/2000/svg">
<path d="M8.12903 4.73926L12 8.73926M12 8.73926L8.12903 12.7393M12 8.73926H4" stroke="white" stroke-width="2" stroke-linecap="round"/>
</svg>
