<svg width="25" height="24" viewBox="0 0 25 24" fill="none" xmlns="http://www.w3.org/2000/svg">
<g clip-path="url(#clip0_3188_4917)">
<path d="M22.3906 7.7812H9.64062C8.47747 7.7812 7.53125 8.72742 7.53125 9.89058V16.9218C7.53125 18.085 8.47747 19.0312 9.64062 19.0312H20.6932L23.2997 21.6377C23.5027 21.8407 23.8069 21.8983 24.066 21.7901C24.329 21.6817 24.5 21.4248 24.5 21.1406V9.89058C24.5 8.72742 23.5538 7.7812 22.3906 7.7812V7.7812ZM18.875 15.5156H13.1562C12.7676 15.5156 12.4531 15.2011 12.4531 14.8125C12.4531 14.4238 12.7676 14.1093 13.1562 14.1093H18.875C19.2636 14.1093 19.5781 14.4238 19.5781 14.8125C19.5781 15.2011 19.2636 15.5156 18.875 15.5156ZM20.2812 12.7031H11.75C11.3614 12.7031 11.0469 12.3886 11.0469 12C11.0469 11.6113 11.3614 11.2968 11.75 11.2968H20.2812C20.6699 11.2968 20.9844 11.6113 20.9844 12C20.9844 12.3886 20.6699 12.7031 20.2812 12.7031Z" fill="#FBD06C"/>
<path d="M0.933969 16.1651C1.19309 16.2733 1.49727 16.2157 1.70028 16.0127L4.30677 13.4062H6.125V9.89058C6.125 7.95216 7.7022 6.37495 9.64062 6.37495H17.4688V4.26558C17.4688 3.10059 16.5244 2.1562 15.3594 2.1562H2.60938C1.44439 2.1562 0.5 3.10059 0.5 4.26558V15.5156C0.5 15.7998 0.670953 16.0567 0.933969 16.1651Z" fill="#FBD06C"/>
</g>
<defs>
<clipPath id="clip0_3188_4917">
<rect width="24" height="24" fill="white" transform="translate(0.5)"/>
</clipPath>
</defs>
</svg>
